{
    "id": 164,
    "launch_library_id": 188,
    "url": "https://spacelaunchnow.me/api/3.3.0/config/launcher/164/?format=json",
    "name": "Falcon 9 Block 5",
    "description": "Falcon 9 is a two-stage rocket designed and manufactured by SpaceX for the reliable and safe transport of satellites and the Dragon spacecraft into orbit. The Block 5 variant is the fifth major interval aimed at improving upon the ability for rapid reusability.",
    "family": "Falcon",
    "full_name": "Falcon 9 Block 5",
    "launch_service_provider": {
        "id": 121,
        "url": "https://spacelaunchnow.me/api/3.3.0/agencies/121/?format=json",
        "name": "SpaceX",
        "featured": true,
        "type": "Commercial",
        "country_code": "USA",
        "abbrev": "SpX",
        "description": "Space Exploration Technologies Corp., known as SpaceX, is an American aerospace manufacturer and space transport services company headquartered in Hawthorne, California. It was founded in 2002 by entrepreneur Elon Musk with the goal of reducing space transportation costs and enabling the colonization of Mars. SpaceX has many pads, on the East Coast of the US they own SLC-40 at Cape Canaveral and LC-39A at the Kennedy Space Center for their lower inclination launches. They also own SLC-4E at Vandenberg, California for their high inclination launches. Another site is also being developed at Boca Chica, Texas.",
        "administrator": "CEO: Elon Musk",
        "founding_year": "2002",
        "launchers": "Falcon",
        "spacecraft": "Dragon",
        "launch_library_url": "https://launchlibrary.net/1.4/agency/121",
        "successful_launches": 82,
        "failed_launches": 6,
        "pending_launches": 41,
        "info_url": "http://www.spacex.com/",
        "wiki_url": "http://en.wikipedia.org/wiki/SpaceX",
        "logo_url": "https://spacelaunchnow-prod-east.nyc3.cdn.digitaloceanspaces.com/media/logo/spacex_logo_20191121063502.png",
        "image_url": "https://spacelaunchnow-prod-east.nyc3.cdn.digitaloceanspaces.com/media/agency_images/spacex_image_20190207032501.jpeg",
        "nation_url": "https://spacelaunchnow-prod-east.nyc3.cdn.digitaloceanspaces.com/media/agency_nation/spacex_nation_20190207032501.jpeg"
    },
    "variant": "Block 5",
    "alias": "",
    "min_stage": 1,
    "max_stage": 2,
    "length": 70.0,
    "diameter": 3.65,
    "maiden_flight": "2018-05-11",
    "launch_mass": 549,
    "leo_capacity": 22800,
    "gto_capacity": 8300,
    "to_thrust": 7607,
    "apogee": 200,
    "vehicle_range": null,
    "image_url": "https://spacelaunchnow-prod-east.nyc3.cdn.digitaloceanspaces.com/media/launcher_images/falcon25209_image_20190224025007.jpeg",
    "info_url": "http://www.spacex.com/falcon9",
    "wiki_url": "https://en.wikipedia.org/wiki/Falcon_9"
}